VHDL/half_adder/simulation/qsim/half_adder.msim.vcd
$comment
	File created using the following command:
		vcd file half_adder.msim.vcd -direction
$end
$date
	Wed Feb 19 15:26:39 2025
$end
$version
	ModelSim Version 10.1d
$end
$timescale
	1ps
$end
$scope module half_adder_vlg_vec_tst $end
$var reg 1 ! A $end
$var reg 1 " B $end
$var wire 1 # Cout $end
$var wire 1 $ Sum $end
$var wire 1 % sampler $end
$scope module i1 $end
$var wire 1 & gnd $end
$var wire 1 ' vcc $end
$var wire 1 ( unknown $end
$var tri1 1 ) devclrn $end
$var tri1 1 * devpor $end
$var tri1 1 + devoe $end
$var wire 1 , Sum~output_o $end
$var wire 1 - Cout~output_o $end
$var wire 1 . A~input_o $end
$var wire 1 / B~input_o $end
$var wire 1 0 Sum~0_combout $end
$var wire 1 1 Cout~0_combout $end
$upscope $end
$upscope $end
$enddefinitions $end
#0
$dumpvars
0!
0"
0#
0$
x%
0&
1'
x(
1)
1*
1+
0,
0-
0.
0/
00
01
$end
#100000
1!
1.
0%
10
1,
1$
#200000
1"
0!
1/
0.
1%
#300000
1!
1.
0%
11
00
1-
0,
1#
0$
#400000
0"
0!
0/
0.
1%
01
0-
0#
#500000
1!
1.
0%
10
1,
1$
#600000
1"
0!
1/
0.
1%
#700000
1!
1.
0%
11
00
1-
0,
1#
0$
#800000
0"
0!
0/
0.
1%
01
0-
0#
#900000
1!
1.
0%
10
1,
1$
